"id","name","model_id:id","group_id:id","perm_read","perm_write","perm_create","perm_unlink"
"access_aircraft_manager","ac.manager","pelita_master_data.model_aircraft_aircraft","group_manager",1,1,1,1
"access_aircraft_user","ac.user","pelita_master_data.model_aircraft_aircraft","group_user",1,1,1,1
"access_aircraft_categ_manager","ac_categ.manager","pelita_master_data.model_aircraft_category","group_manager",1,1,1,1
"access_aircraft_categ_user","ac_categ.user","pelita_master_data.model_aircraft_category","group_user",1,1,1,1
"access_crew_manager",crew.manager","model_hr_employee","group_manager",1,1,1,1
"access_crew_user","crew.user","model_hr_employee","group_user",1,1,1,1
"access_cv_manager",cv.manager","model_hr_cv","group_manager",1,1,1,1
"access_cv_user",cv.user","model_hr_cv","group_user",1,1,1,1
"access_education_manager",education.manager","model_hr_education","group_manager",1,1,1,1
"access_education_user",education.user","model_hr_education","group_user",1,1,1,1
"access_education_manager",education.manager","model_hr_education","group_manager",1,1,1,1
"access_carrier_manager",carrier.manager","model_hr_carrier","group_manager",1,1,1,1
"access_carrier_user",carrier.user","model_hr_carrier","group_user",1,1,1,1
"access_training_manager",training.manager","model_hr_training","group_manager",1,1,1,1
"access_training_user",training.user","model_hr_training","group_user",1,1,1,1
"access_document_manager",document.manager","model_hr_document","group_manager",1,1,1,1
"access_document_user",document.user","model_hr_document","group_user",1,1,1,1
"access_qualification_manager",qualification.manager","model_rating_qualification","group_manager",1,1,1,1
"access_qualification_user",qualification.user","model_rating_qualification","group_user",1,1,1,1
"access_fh_manager",fh.manager","model_flying_hours","group_manager",1,1,1,1
"access_fh_user",fh.user","model_flying_hours","group_user",1,1,1,1
"access_cdt_manager",cdt.manager","model_crew_duty_time","group_manager",1,1,1,1
"access_cdt_user",cdt.user","model_crew_duty_time","group_user",1,1,1,1
"access_hq_manager",hq.manager","model_hr_qualification","group_manager",1,1,1,1
"access_hq_user",hq.user","model_hr_qualification","group_user",1,1,1,1
"access_pc_manager",pc.manager","model_pilot_category","group_manager",1,1,1,1
"access_pc_user",pc.user","model_pilot_category","group_user",1,1,1,1
"access_cc_manager",cc.manager","model_crew_category","group_manager",1,1,1,1
"access_cc_user",cc.user","model_crew_category","group_user",1,1,1,1
"access_to_manager",to.manager","model_training_operation","group_manager",1,1,1,1
"access_to_user",to.user","model_training_operation","group_user",1,1,1,1
"access_tol_manager",tol.manager","model_training_operation_lines","group_manager",1,1,1,1
"access_tol_user",tol.user","model_training_operation_lines","group_user",1,1,1,1
"access_cs_manager",cs.manager","model_crew_schedule","group_manager",1,1,1,1
"access_cs_user",cs.user","model_crew_schedule","group_user",1,1,1,1
"access_csa_manager",csa.manager","model_crew_schedule_actual","group_manager",1,1,1,1
"access_csa_user",csa.user","model_crew_schedule_actual","group_user",1,1,1,1
"access_tc_manager",tc.manager","model_training_crew","group_manager",1,1,1,1
"access_tc_user",tc.user","model_training_crew","group_user",1,1,1,1
"access_rc_manager",rc.manager","model_regulation_regulation","group_manager",1,1,1,1
"access_rc_user",rc.user","model_regulation_regulation","group_user",1,1,1,1
"access_st_manager",st.manager","model_crew_schedule_type","group_manager",1,1,1,1
"access_st_user",st.user","model_crew_schedule_type","group_user",1,1,1,1
"access_aircraft_acquisition_manager","aircraft_acquisition.manager","pelita_master_data.model_aircraft_acquisition","group_manager",1,1,1,1
"access_aircraft_acquisition_user","aircraft_acquisition.user","pelita_master_data.model_aircraft_acquisition","group_user",1,1,1,1















