id,name,model_id:id,group_id:id,perm_read,perm_write,perm_create,perm_unlink
access_rol_user,route_operation_line.user,model_route_operation_line,pelita_operation.group_user,1,1,1,0
access_rol_manager,route_operation_line.manager,model_route_operation_line,pelita_operation.group_manager,1,1,1,1
access_rol_viewer,route_operation_line.viewer,model_route_operation_line,ib_base_pelita.group_operation_viewer,1,0,0,0
access_maintenance_log_viewer,flight_maintenance_log.viewer,pelita_operation.model_flight_maintenance_log,ib_base_pelita.group_operation_viewer,1,0,0,0
access_mtc_fixedwing,maintenance_fixedwing.viewer,pelita_operation.model_maintenance_fixedwing,ib_base_pelita.group_operation_viewer,1,0,0,0
access_flight_fixed_crew,flight_fixed_crew.viewer,pelita_operation.model_flight_fixed_crew,ib_base_pelita.group_operation_viewer,1,0,0,0
access_mtc_route,maintenance_route.viewer,pelita_operation.model_maintenance_rotary,ib_base_pelita.group_operation_viewer,1,0,0,0
access_discrepancies,discrepancies.viewer,pelita_operation.model_discrepancies_discrepancies,ib_base_pelita.group_operation_viewer,1,0,0,0
access_mtc_rotary,maintenance_rotary.viewer,pelita_operation.model_maintenance_rotary,ib_base_pelita.group_operation_viewer,1,0,0,0
access_base_opt,base_operation.viewer,pelita_operation.model_base_operation,ib_base_pelita.group_operation_viewer,1,0,0,0
access_area_opt,area_operation.viewer,pelita_operation.model_area_operation,ib_base_pelita.group_operation_viewer,1,0,0,0
access_irregularity_operation,irregularity_operation.viewer,pelita_operation.model_irregularity_operation,ib_base_pelita.group_operation_viewer,1,0,0,0
access_route_operation,route_operation.viewer,pelita_operation.model_route_operation,ib_base_pelita.group_operation_viewer,1,0,0,0
access_flight_hours_price,flight_hours_price.viewer,pelita_operation.model_flight_hours_price,ib_base_pelita.group_operation_viewer,1,0,0,0
access_regulation_regulation,regulation_regulation.viewer,pelita_operation.model_regulation_regulation,ib_base_pelita.group_operation_viewer,1,0,0,0
access_duty_time,duty_time.viewer,pelita_operation.model_duty_time,ib_base_pelita.group_operation_viewer,1,0,0,0
access_office_duty,office_duty.viewer,pelita_operation.model_office_duty,ib_base_pelita.group_operation_viewer,1,0,0,0
access_flight_requisition,flight_requisition.viewer,pelita_operation.model_flight_requisition,ib_base_pelita.group_operation_viewer,1,0,0,0
access_schedule_type,schedule_type.viewer,pelita_operation.model_schedule_type,ib_base_pelita.group_operation_viewer,1,0,0,0
access_flight_schedule,flight_schedule.viewer,pelita_operation.model_flight_schedule,ib_base_pelita.group_operation_viewer,1,0,0,0
access_int_flight_type,int_flight_type.viewer,pelita_operation.model_internal_flight_type,ib_base_pelita.group_operation_viewer,1,0,0,0
access_hr_crews,hr_crews.viewer,pelita_operation.model_hr_crews,ib_base_pelita.group_operation_viewer,1,0,0,0
access_crew_type,crew_type.viewer,pelita_operation.model_crew_type,ib_base_pelita.group_operation_viewer,1,0,0,0
access_flight_attendant,flight_attendant.viewer,pelita_operation.model_flight_attendant,ib_base_pelita.group_operation_viewer,1,0,0,0
access_reason_reason,reason_reason.viewer,pelita_operation.model_reason_reason,ib_base_pelita.group_operation_viewer,1,0,0,0
access_corrective_action,corrective_action.viewer,pelita_operation.model_corrective_action,ib_base_pelita.group_operation_viewer,1,0,0,0
access_aircraft_aircraft_viewer,aircraft_aircraft.viewer,pelita_master_data.model_aircraft_aircraft,ib_base_pelita.group_fleet_management_viewer,1,0,0,0
access_aircraft_type_viewer,aircraft_type.viewer,pelita_master_data.model_aircraft_type,ib_base_pelita.group_fleet_management_viewer,1,0,0,0
access_aircraft_category_viewer,aircraft_category.viewer,pelita_master_data.model_aircraft_category,ib_base_pelita.group_fleet_management_viewer,1,0,0,0
access_engine_type_viewer,engine.type.viewer,pelita_master_data.model_engine_type,ib_base_pelita.group_fleet_management_viewer,1,0,0,0
access_propeller_type_viewer,propeller.type.viewer,pelita_master_data.model_propeller_type,ib_base_pelita.group_fleet_management_viewer,1,0,0,0
access_document_document_viewer,document_document.viewer,pelita_master_data.model_document_document,ib_base_pelita.group_fleet_management_viewer,1,0,0,0
access_aircraft_acquisition_viewer,aircraft_acquisition.viewer,pelita_master_data.model_aircraft_acquisition,ib_base_pelita.group_fleet_management_viewer,1,0,0,0
access_fleet_assignment_viewer,fleet_assignment.viewer,pelita_master_data.model_fleet_assignment,ib_base_pelita.group_fleet_management_viewer,1,0,0,0
access_redelivery_schedule_viewer,redelivery_schedule.viewer,pelita_master_data.model_redelivery_schedule,ib_base_pelita.group_fleet_management_viewer,1,0,0,0
access_aircraft_rental_viewer,aircraft_rental.viewer,pelita_master_data.model_aircraft_rental,ib_base_pelita.group_fleet_management_viewer,1,0,0,0
access_sale_trx_type_user,trx_type.usr_sale,model_sale_trx_type,sales_team.group_sale_salesman,1,1,1,0
access_sale_trx_type_all_leads,trx_type.all_leads,model_sale_trx_type,sales_team.group_sale_salesman_all_leads,1,1,1,1
access_sale_trx_type_manager,trx_type.mgr_sale,model_sale_trx_type,sales_team.group_sale_manager,1,1,1,1
access_product_tmpl_mgr,product_tmpl.mgr,product.model_product_template,pelita_operation.group_manager,1,1,1,1
access_product_tmpl_usr,product_tmpl.usr,product.model_product_template,pelita_operation.group_user,1,1,1,0
access_product_product_mgr,product_product.mgr,product.model_product_product,pelita_operation.group_manager,1,1,1,1
access_product_product_usr,product_product.usr,product.model_product_product,pelita_operation.group_user,1,1,1,0
access_pelita_business_unit_user,business_unit.usr_sale,model_pelita_business_unit,sales_team.group_sale_salesman,1,1,1,0
access_pelita_business_unit_all_leads,business_unit.all_leads,model_pelita_business_unit,sales_team.group_sale_salesman_all_leads,1,1,1,1
access_pelita_business_unit_manager,business_unit.mgr_sale,model_pelita_business_unit,sales_team.group_sale_manager,1,1,1,1
access_sales_off_user,sales_off.usr_sale,model_sale_sales_office,sales_team.group_sale_salesman,1,1,1,0
access_sales_off_all_leads,sales_off.all_leads,model_sale_sales_office,sales_team.group_sale_salesman_all_leads,1,1,1,1
access_sales_off_manager,sales_off.mgr_sale,model_sale_sales_office,sales_team.group_sale_manager,1,1,1,1
access_sale_division_user,sale_division.usr_sale,model_sale_division,sales_team.group_sale_salesman,1,1,1,0
access_sale_division_all_leads,sale_division.all_leads,model_sale_division,sales_team.group_sale_salesman_all_leads,1,1,1,1
access_sale_division_manager,sale_division.mgr_sale,model_sale_division,sales_team.group_sale_manager,1,1,1,1
access_discount_channel_user,discount_channel.usr_sale,model_sale_distribution_channel,sales_team.group_sale_salesman,1,1,1,0
access_discount_channel_all_leads,discount_channel.all_leads,model_sale_distribution_channel,sales_team.group_sale_salesman_all_leads,1,1,1,1
access_discount_channel_manager,discount_channel.mgr_sale,model_sale_distribution_channel,sales_team.group_sale_manager,1,1,1,1
access_sales_area_user,sales_area.usr_sale,model_sale_sales_area,sales_team.group_sale_salesman,1,1,1,0
access_sales_area_all_leads,sales_area.all_leads,model_sale_sales_area,sales_team.group_sale_salesman_all_leads,1,1,1,1
access_sales_area_manager,sales_area.mgr_sale,model_sale_sales_area,sales_team.group_sale_manager,1,1,1,1
access_fs_assign_tech_mgr,fs_assign_tech.mgr,ib_base_pelita.model_fs_assigned_technician,pelita_operation.group_manager,1,1,1,1
access_fs_assign_tech_usr,fs_assign_tech.usr,ib_base_pelita.model_fs_assigned_technician,pelita_operation.group_user,1,1,1,1
access_fs_assign_tech_viewer,fs_assign_tech.viewer,ib_base_pelita.model_fs_assigned_technician,ib_base_pelita.group_operation_viewer,1,0,0,0
access_log_aircraft_user,log_aircraft.usr_sale,ib_base_pelita.model_product_log_availability,sales_team.group_sale_salesman,1,1,1,0
access_log_aircraft_all_leads,log_aircraft.all_leads,ib_base_pelita.model_product_log_availability,sales_team.group_sale_salesman_all_leads,1,1,1,0
access_log_aircraft_mgr,log_aircraft.mgr_sale,ib_base_pelita.model_product_log_availability,sales_team.group_sale_manager,1,1,1,0
access_log_aircraft_erp_mgr,log_aircraft.erp_mgr,ib_base_pelita.model_product_log_availability,base.group_erp_manager,1,1,1,1
access_log_aircraft_sys_mgr,log_aircraft.sys_mgr,ib_base_pelita.model_product_log_availability,base.group_system,1,1,1,1
access_fl_rotary_log_viewer,fl_rotary_log.viewer,pelita_operation.model_flight_rotary_crew,ib_base_pelita.group_operation_viewer,1,0,0,0
access_rotary_route_viewer,rotary.route.viewer,pelita_operation.model_rotary_route,ib_base_pelita.group_operation_viewer,1,0,0,0
access_rotary_time_viewer,rotary.time.viewer,pelita_operation.model_rotary_time,ib_base_pelita.group_operation_viewer,1,0,0,0
access_mtc_rotary_viewer,maintenance_rotary.viewer,pelita_operation.model_maintenance_rotary,ib_base_pelita.group_operation_viewer,1,0,0,0
access_discrepancies_viewer,discrepancies.obj.viewer,pelita_operation.model_discrepancies_discrepancies,ib_base_pelita.group_operation_viewer,1,0,0,0
access_flight_fixed_crew_viewer,flight_fixed_crew.viewer,pelita_operation.model_flight_fixed_crew,ib_base_pelita.group_operation_viewer,1,0,0,0
access_mtc_fixedwing_viewer,maintenance_fixedwing.viewer,pelita_operation.model_maintenance_fixedwing,ib_base_pelita.group_operation_viewer,1,0,0,0
access_corrective_action_viewer,corrective.action.viewer,pelita_operation.model_corrective_action,ib_base_pelita.group_operation_viewer,1,0,0,0
access_route_fl_ops_manager,route_fl_ops.mgr_sale,pelita_operation.model_route_flight_operation,sales_team.group_sale_manager,1,0,1,0
access_route_fl_ops_user_sale,route_fl_ops.usr_sale,pelita_operation.model_route_flight_operation,sales_team.group_sale_salesman,1,0,1,0
access_route_fl_ops_all_leads,route_fl_ops.all_leads,pelita_operation.model_route_flight_operation,sales_team.group_sale_salesman_all_leads,1,0,1,0
